Reviewing packages; how does it work?
…
```
## # A tibble: 9,956 x 12
## # Groups:   package [6,056]
##    package   submission_n d          new       h newbies pretest inspect pending
##    <chr>            <dbl> <date>     <chr> <int>   <int>   <int>   <int>   <int>
##  1 abess                1 2021-04-13 New      43      37       5       0       0
##  2 abglasso             1 2021-05-11 New      23      11       0      12       0
##  3 abn                  1 2020-10-22 Upda…    15       0       0      15       0
##  4 abn                  2 2020-11-16 Upda…    51       0       0      21      30
##  5 abn                  3 2021-04-21 Upda…    42       0       7      12      23
##  6 abtest               1 2020-11-12 Upda…     1       0       1       0       0
##  7 academic…            1 2021-05-10 New      23      22       0       0       0
##  8 accucor              1 2021-04-09 New      58      30       2      25       0
##  9 acebayes             1 2020-10-04 Upda…    22       0       0      22       0
## 10 aceEditor            1 2020-10-14 New     202     198       3       0       0
## # … with 9,946 more rows, and 3 more variables: publish <int>, waiting <int>,
## #   recheck <int>
```
…
